{"animate"	:	true,
"env_name"	:	"InvertedPendulum-v2",
"exp_name"	:	"ip_b500_r0.01",
"gamma"	:	0.9,
"learning_rate"	:	0.01,
"logdir"	:	"data/ip_b500_r0.01_InvertedPendulum-v2_19-09-2018_23-22-23/21",
"max_path_length"	:	1000.0,
"min_timesteps_per_batch"	:	500,
"n_iter"	:	100,
"n_layers"	:	2,
"nn_baseline"	:	false,
"normalize_advantages"	:	true,
"reward_to_go"	:	true,
"seed"	:	21,
"size"	:	64}