{"animate"	:	false,
"env_name"	:	"CartPole-v0",
"exp_name"	:	"100_1",
"gamma"	:	1.0,
"learning_rate"	:	0.005,
"logdir"	:	"/home/vincent/workplace/CS294-112 - Deep Reinforcement Learning/homework/hw3/data/ac_100_1_CartPole-v0_08-10-2018_16-19-55/1",
"max_path_length"	:	null,
"min_timesteps_per_batch"	:	1000,
"n_iter"	:	100,
"n_layers"	:	2,
"normalize_advantages"	:	true,
"num_grad_steps_per_target_update"	:	1,
"num_target_updates"	:	100,
"seed"	:	1,
"size"	:	64}