{"animate"	:	false,
"env_name"	:	"InvertedPendulum-v2",
"exp_name"	:	"s128_nlayers4_actorlr0.01_criticlr0.001_20_20",
"gamma"	:	0.95,
"learning_rate"	:	0.01,
"logdir"	:	"/home/vincent/workplace/CS294-112 - Deep Reinforcement Learning/homework/hw3/data/ac_s128_nlayers4_actorlr0.01_criticlr0.001_20_20_InvertedPendulum-v2_10-10-2018_01-10-56/11",
"max_path_length"	:	1000.0,
"min_timesteps_per_batch"	:	5000,
"n_iter"	:	100,
"n_layers"	:	4,
"normalize_advantages"	:	true,
"num_grad_steps_per_target_update"	:	20,
"num_target_updates"	:	20,
"seed"	:	11,
"size"	:	128}