{"animate"	:	false,
"env_name"	:	"InvertedPendulum-v2",
"exp_name"	:	"ip_b2000_r0.02",
"gamma"	:	0.9,
"learning_rate"	:	0.02,
"logdir"	:	"data/ip_b2000_r0.02_InvertedPendulum-v2_20-09-2018_00-14-50/11",
"max_path_length"	:	1000.0,
"min_timesteps_per_batch"	:	2000,
"n_iter"	:	100,
"n_layers"	:	2,
"nn_baseline"	:	false,
"normalize_advantages"	:	true,
"reward_to_go"	:	true,
"seed"	:	11,
"size"	:	64}