{"animate"	:	false,
"bonus_coeff"	:	0.001,
"density_batch_size"	:	64,
"density_hiddim"	:	32,
"density_lr"	:	0.005,
"density_train_iters"	:	1000,
"dm"	:	"ex2",
"env_name"	:	"HalfCheetah-v2",
"exp_name"	:	"HC_bc0.001_kl0.1_dlr0.005_dti1000",
"gamma"	:	0.9,
"kl_weight"	:	0.1,
"learning_rate"	:	0.02,
"logdir"	:	"/home/vincent/workplace/CS294-112 - Deep Reinforcement Learning/homework/hw5a/exp/data/ac_HC_bc0.001_kl0.1_dlr0.005_dti1000_HalfCheetah-v2_16-11-2018_17-57-11/11",
"max_path_length"	:	150.0,
"min_timesteps_per_batch"	:	30000,
"n_iter"	:	100,
"n_layers"	:	2,
"normalize_advantages"	:	true,
"num_grad_steps_per_target_update"	:	10,
"num_target_updates"	:	10,
"replay_size"	:	1000000,
"seed"	:	11,
"sigma"	:	0.2,
"size"	:	32}