Time	Iteration	AverageReturn	StdReturn	MaxReturn	MinReturn	EpLenMean	EpLenStd	TimestepsThisBatch	TimestepsSoFar
10.057283639907837	0	7.1266003	3.6706	24.0	3.0	7.126600284495021	3.670599924353734	5010	5010
17.612027645111084	1	24.816832	13.579291	77.0	5.0	24.816831683168317	13.579290940141757	5013	10023
24.621259689331055	2	36.289856	16.90905	94.0	11.0	36.289855072463766	16.909050358815747	5008	15031
31.6999032497406	3	30.797546	14.617478	98.0	5.0	30.79754601226994	14.61747819648006	5020	20051
38.7398202419281	4	47.25472	24.82241	136.0	10.0	47.25471698113208	24.822411252567676	5009	25060
45.76539325714111	5	63.379745	40.616547	293.0	7.0	63.379746835443036	40.616547041899	5007	30067
52.93596363067627	6	73.55073	32.508877	141.0	8.0	73.55072463768116	32.50887782062093	5075	35142
60.28322243690491	7	100.32	39.723263	219.0	15.0	100.32	39.72326270587551	5016	40158
67.31877779960632	8	125.25	44.98486	357.0	51.0	125.25	44.98485856374342	5010	45168
74.49853205680847	9	95.528305	27.12487	201.0	32.0	95.52830188679245	27.124871114264636	5063	50231
81.8123848438263	10	117.023254	25.32807	215.0	85.0	117.02325581395348	25.328069154084645	5032	55263
89.130606174469	11	644.875	125.06342	897.0	483.0	644.875	125.06342141089856	5159	60422
97.66160130500793	12	559.6667	349.14404	1000.0	105.0	559.6666666666666	349.14403267928776	5037	65459
104.97369527816772	13	399.76923	335.9634	1000.0	58.0	399.7692307692308	335.9634031915138	5197	70656
112.23600053787231	14	476.45456	290.50906	956.0	20.0	476.45454545454544	290.5090715643094	5241	75897
119.36718678474426	15	851.6667	216.81224	1000.0	399.0	851.6666666666666	216.81225877601005	5110	81007
126.33521676063538	16	593.1111	436.26126	1000.0	21.0	593.1111111111111	436.2612480420532	5338	86345
134.27399325370789	17	407.2143	376.86795	1000.0	3.0	407.2142857142857	376.8679531104132	5701	92046
141.86821937561035	18	916.5	186.71167	1000.0	499.0	916.5	186.71167612123244	5499	97545
150.71675205230713	19	714.125	413.2422	1000.0	22.0	714.125	413.2421921524955	5713	103258
158.89508080482483	20	1000.0	0.0	1000.0	1000.0	1000.0	0.0	6000	109258
167.31825065612793	21	1000.0	0.0	1000.0	1000.0	1000.0	0.0	6000	115258
176.7970950603485	22	1000.0	0.0	1000.0	1000.0	1000.0	0.0	6000	121258
185.50503516197205	23	839.1667	359.63428	1000.0	35.0	839.1666666666666	359.6342663812162	5035	126293
194.99707746505737	24	1000.0	0.0	1000.0	1000.0	1000.0	0.0	6000	132293
204.11250352859497	25	1000.0	0.0	1000.0	1000.0	1000.0	0.0	6000	138293
213.1554343700409	26	1000.0	0.0	1000.0	1000.0	1000.0	0.0	6000	144293
222.15887784957886	27	1000.0	0.0	1000.0	1000.0	1000.0	0.0	6000	150293
231.17337727546692	28	1000.0	0.0	1000.0	1000.0	1000.0	0.0	6000	156293
239.63126850128174	29	1000.0	0.0	1000.0	1000.0	1000.0	0.0	6000	162293
249.01661133766174	30	1000.0	0.0	1000.0	1000.0	1000.0	0.0	6000	168293
257.90289068222046	31	1000.0	0.0	1000.0	1000.0	1000.0	0.0	6000	174293
266.5655119419098	32	1000.0	0.0	1000.0	1000.0	1000.0	0.0	6000	180293
274.84452867507935	33	1000.0	0.0	1000.0	1000.0	1000.0	0.0	6000	186293
283.0516092777252	34	1000.0	0.0	1000.0	1000.0	1000.0	0.0	6000	192293
290.3808102607727	35	834.0	371.1873	1000.0	4.0	834.0	371.1872842649651	5004	197297
298.7149817943573	36	896.5	231.43303	1000.0	379.0	896.5	231.43303567122823	5379	202676
307.50199341773987	37	1000.0	0.0	1000.0	1000.0	1000.0	0.0	6000	208676
316.5481972694397	38	837.7143	327.92407	1000.0	50.0	837.7142857142857	327.924082802152	5864	214540
324.5400528907776	39	168.13333	101.36526	475.0	60.0	168.13333333333333	101.365258128984	5044	219584
332.6972577571869	40	106.291664	48.715996	363.0	31.0	106.29166666666667	48.71599597554061	5102	224686
339.3606605529785	41	61.851852	31.892609	228.0	12.0	61.851851851851855	31.8926095820546	5010	229696
346.570111989975	42	50.838383	20.465645	107.0	10.0	50.83838383838384	20.46564357856824	5033	234729
353.6805102825165	43	51.214287	22.282166	153.0	30.0	51.214285714285715	22.28216546835571	5019	239748
360.16960287094116	44	57.931034	22.764055	130.0	6.0	57.93103448275862	22.76405368797824	5040	244788
367.3674032688141	45	88.96491	16.990156	148.0	46.0	88.96491228070175	16.99015701865704	5071	249859
374.7246208190918	46	166.29033	85.899864	387.0	3.0	166.29032258064515	85.8998642638107	5155	255014
382.01549339294434	47	34.770832	50.446026	346.0	3.0	34.770833333333336	50.44602709139299	5007	260021
390.1690127849579	48	1000.0	0.0	1000.0	1000.0	1000.0	0.0	6000	266021
397.4418466091156	49	121.51163	93.79675	481.0	52.0	121.51162790697674	93.79675506189228	5225	271246
404.52275562286377	50	113.77273	62.495766	310.0	16.0	113.77272727272727	62.49576845179332	5006	276252
411.6878619194031	51	44.86607	26.575193	151.0	8.0	44.86607142857143	26.57519504555298	5025	281277
419.0236916542053	52	38.46565	25.215801	174.0	5.0	38.465648854961835	25.215800726099825	5039	286316
426.5687906742096	53	53.7957	38.573643	219.0	9.0	53.795698924731184	38.57364389069469	5003	291319
433.95786809921265	54	145.4	82.77446	317.0	23.0	145.4	82.7744612097924	5089	296408
441.25419759750366	55	527.9	329.9262	928.0	10.0	527.9	329.9261887149912	5279	301687
449.6140763759613	56	723.375	290.74255	1000.0	147.0	723.375	290.74255686947515	5787	307474
457.02189207077026	57	582.55554	291.42145	1000.0	137.0	582.5555555555555	291.4214630664709	5243	312717
464.78215861320496	58	824.2857	281.69373	1000.0	298.0	824.2857142857143	281.6937112162349	5770	318487
472.8335049152374	59	1000.0	0.0	1000.0	1000.0	1000.0	0.0	6000	324487
480.7701315879822	60	1000.0	0.0	1000.0	1000.0	1000.0	0.0	6000	330487
488.9323585033417	61	1000.0	0.0	1000.0	1000.0	1000.0	0.0	6000	336487
497.52236247062683	62	1000.0	0.0	1000.0	1000.0	1000.0	0.0	6000	342487
506.0473051071167	63	898.3333	227.33359	1000.0	390.0	898.3333333333334	227.33357771247864	5390	347877
513.9681911468506	64	936.1667	142.73569	1000.0	617.0	936.1666666666666	142.73567256373659	5617	353494
522.3432281017303	65	414.76923	318.03513	1000.0	35.0	414.7692307692308	318.0351102644907	5392	358886
530.9886367321014	66	578.9	409.65973	1000.0	12.0	578.9	409.65972464961703	5789	364675
538.8530881404877	67	724.0	420.38486	1000.0	46.0	724.0	420.3848576857028	5068	369743
547.6350581645966	68	854.4286	240.6621	1000.0	359.0	854.4285714285714	240.662096928368	5981	375724
556.4360594749451	69	1000.0	0.0	1000.0	1000.0	1000.0	0.0	6000	381724
564.7977418899536	70	1000.0	0.0	1000.0	1000.0	1000.0	0.0	6000	387724
574.2530138492584	71	1000.0	0.0	1000.0	1000.0	1000.0	0.0	6000	393724
583.1112957000732	72	1000.0	0.0	1000.0	1000.0	1000.0	0.0	6000	399724
593.5675013065338	73	1000.0	0.0	1000.0	1000.0	1000.0	0.0	6000	405724
604.2211356163025	74	1000.0	0.0	1000.0	1000.0	1000.0	0.0	6000	411724
615.1015682220459	75	1000.0	0.0	1000.0	1000.0	1000.0	0.0	6000	417724
626.2087118625641	76	849.5	336.52823	1000.0	97.0	849.5	336.52823061371834	5097	422821
638.7577967643738	77	1000.0	0.0	1000.0	1000.0	1000.0	0.0	6000	428821
650.866622209549	78	1000.0	0.0	1000.0	1000.0	1000.0	0.0	6000	434821
662.8643290996552	79	822.2857	254.3938	1000.0	279.0	822.2857142857143	254.39379725463561	5756	440577
674.6760609149933	80	839.8571	255.33308	1000.0	253.0	839.8571428571429	255.33307578893246	5879	446456
685.7924156188965	81	913.8333	137.28123	1000.0	632.0	913.8333333333334	137.2812401200138	5483	451939
698.0542647838593	82	1000.0	0.0	1000.0	1000.0	1000.0	0.0	6000	457939
710.0329787731171	83	982.1667	39.87655	1000.0	893.0	982.1666666666666	39.87654559874625	5893	463832
721.5043399333954	84	927.3333	162.48763	1000.0	564.0	927.3333333333334	162.4876063649847	5564	469396
734.0476667881012	85	1000.0	0.0	1000.0	1000.0	1000.0	0.0	6000	475396
746.5843334197998	86	1000.0	0.0	1000.0	1000.0	1000.0	0.0	6000	481396
758.711391210556	87	1000.0	0.0	1000.0	1000.0	1000.0	0.0	6000	487396
770.7893731594086	88	1000.0	0.0	1000.0	1000.0	1000.0	0.0	6000	493396
781.4084038734436	89	1000.0	0.0	1000.0	1000.0	1000.0	0.0	6000	499396
791.4920721054077	90	1000.0	0.0	1000.0	1000.0	1000.0	0.0	6000	505396
801.6826703548431	91	1000.0	0.0	1000.0	1000.0	1000.0	0.0	6000	511396
812.6229271888733	92	1000.0	0.0	1000.0	1000.0	1000.0	0.0	6000	517396
822.9655847549438	93	1000.0	0.0	1000.0	1000.0	1000.0	0.0	6000	523396
833.6967451572418	94	1000.0	0.0	1000.0	1000.0	1000.0	0.0	6000	529396
844.6559579372406	95	1000.0	0.0	1000.0	1000.0	1000.0	0.0	6000	535396
854.6308131217957	96	1000.0	0.0	1000.0	1000.0	1000.0	0.0	6000	541396
862.066002368927	97	844.0	348.8266	1000.0	64.0	844.0	348.82660448996717	5064	546460
870.552731513977	98	1000.0	0.0	1000.0	1000.0	1000.0	0.0	6000	552460
878.2264602184296	99	755.5714	387.87106	1000.0	83.0	755.5714285714286	387.8710599976151	5289	557749
