Time	Iteration	AverageReturn	StdReturn	MaxReturn	MinReturn	EpLenMean	EpLenStd	Unmodified Rewards Mean	Unmodified Rewards Std	Modified Rewards Mean	Modified Rewards Std	TimestepsThisBatch	TimestepsSoFar
3.0337445735931396	0	-0.4286022	0.087410815	-0.25177664	-0.6315052	21.0	0.0	-0.020409629	-0.020409629	-0.01835144672827968	-0.01835144672827968	1008	1008
4.264478445053101	1	-0.40749168	0.08694313	-0.22698395	-0.69201326	21.0	0.0	-0.019404367	-0.019404367	-0.017868807137772783	-0.017868807137772783	1008	2016
5.186453819274902	2	-0.42705473	0.097581536	-0.18838826	-0.694682	21.0	0.0	-0.020335939	-0.020335939	-0.018720481260652445	-0.018720481260652445	1008	3024
6.107321739196777	3	-0.4272848	0.08208205	-0.24380988	-0.6316048	21.0	0.0	-0.020346895	-0.020346895	-0.019022354036757415	-0.019022354036757415	1008	4032
7.0002281665802	4	-0.42553702	0.08530993	-0.26396343	-0.630523	21.0	0.0	-0.020263668	-0.020263668	-0.018896125441536078	-0.018896125441536078	1008	5040
7.9032604694366455	5	-0.39914438	0.067423135	-0.28945908	-0.5702229	21.0	0.0	-0.019006873	-0.019006873	-0.017401810458015865	-0.017401810458015865	1008	6048
8.817224025726318	6	-0.4179435	0.10131667	-0.1790902	-0.6613729	21.0	0.0	-0.019902075	-0.019902075	-0.01866635735810909	-0.01866635735810909	1008	7056
9.720118522644043	7	-0.4088618	0.0959753	-0.1926611	-0.6447361	21.0	0.0	-0.01946961	-0.01946961	-0.01787469744718206	-0.01787469744718206	1008	8064
10.6409170627594	8	-0.43334723	0.11818901	-0.25198072	-0.7784532	21.0	0.0	-0.020635583	-0.020635583	-0.018961557304263223	-0.018961557304263223	1008	9072
11.549333333969116	9	-0.4512652	0.10405207	-0.21421294	-0.7403445	21.0	0.0	-0.021488817	-0.021488817	-0.01976253591432453	-0.01976253591432453	1008	10080
12.460058689117432	10	-0.43301454	0.10385698	-0.27248338	-0.75596184	21.0	0.0	-0.02061974	-0.02061974	-0.018815451146042116	-0.018815451146042116	1008	11088
13.39194941520691	11	-0.44725475	0.100175075	-0.30597878	-0.67355263	21.0	0.0	-0.021297844	-0.021297844	-0.019763562960919998	-0.019763562960919998	1008	12096
14.326990127563477	12	-0.44446006	0.102365986	-0.27268532	-0.7800113	21.0	0.0	-0.021164766	-0.021164766	-0.019746984991861397	-0.019746984991861397	1008	13104
15.246805906295776	13	-0.51971054	0.10940596	-0.28388786	-0.7868869	21.0	0.0	-0.02474812	-0.02474812	-0.02308863839000148	-0.02308863839000148	1008	14112
16.179169416427612	14	-0.4958236	0.11777883	-0.3091043	-0.77150434	21.0	0.0	-0.023610644	-0.023610644	-0.022141085161886488	-0.022141085161886488	1008	15120
17.104042053222656	15	-0.5236234	0.11494641	-0.25733382	-0.76612353	21.0	0.0	-0.024934446	-0.024934446	-0.023467337067744534	-0.023467337067744534	1008	16128
18.035662412643433	16	-0.57459456	0.11972116	-0.29198837	-0.86881095	21.0	0.0	-0.027361644	-0.027361644	-0.02592337719029576	-0.02592337719029576	1008	17136
18.957873582839966	17	-0.3732065	1.3997351	9.187474	-0.83411735	21.0	0.0	-0.017771738	-0.017771738	-0.016409680915704286	-0.016409680915704286	1008	18144
19.8952214717865	18	2.057643	8.291193	39.06531	-0.9228385	21.0	0.0	0.09798299	0.09798299	0.09953642229117701	0.09953642229117701	1008	19152
20.817710161209106	19	2.9190857	13.251337	69.08528	-0.9133709	21.0	0.0	0.13900407	0.13900407	0.14044061922964363	0.14044061922964363	1008	20160
21.735889196395874	20	-0.009725213	3.1508667	19.351742	-0.8517759	21.0	0.0	-0.00046310632	-0.00046310632	0.0007792204812583447	0.0007792204812583447	1008	21168
22.650290966033936	21	4.6960635	13.012802	59.046764	-0.9664622	21.0	0.0	0.22362207	0.22362207	0.22494666437705035	0.22494666437705035	1008	22176
23.57210659980774	22	10.925728	17.268356	59.08503	-0.941787	21.0	0.0	0.5202728	0.5202728	0.521654258125728	0.521654258125728	1008	23184
24.47350311279297	23	17.105185	20.940208	69.054085	-0.94943696	21.0	0.0	0.81453264	0.81453264	0.8158404274445931	0.8158404274445931	1008	24192
25.395707845687866	24	23.33207	24.881506	99.05691	-0.8840331	21.0	0.0	1.1110508	1.1110508	1.1122840380246068	1.1122840380246068	1008	25200
26.313459634780884	25	31.616388	27.24486	79.07101	-0.99653673	21.0	0.0	1.5055422	1.5055422	1.5067873698697714	1.5067873698697714	1008	26208
27.231005668640137	26	43.034077	28.912512	88.88502	-0.89314973	21.0	0.0	2.0492418	2.0492418	2.0505610061369706	2.0505610061369706	1008	27216
28.142820358276367	27	54.81541	27.278435	128.49649	-0.6267027	21.0	0.0	2.6102579	2.6102579	2.611417401551781	2.611417401551781	1008	28224
29.068235158920288	28	52.126957	23.788473	98.677734	-0.86470795	21.0	0.0	2.482236	2.482236	2.483362629804309	2.483362629804309	1008	29232
29.98443603515625	29	64.09185	22.819532	108.67993	9.062729	21.0	0.0	3.0519927	3.0519927	3.0531711504549044	3.0531711504549044	1008	30240
30.958179473876953	30	66.587585	20.563892	118.709625	19.1721	21.0	0.0	3.1708374	3.1708374	3.171971788635084	3.171971788635084	1008	31248
31.93542718887329	31	78.14358	19.454569	118.62254	29.119028	21.0	0.0	3.7211223	3.7211223	3.7220294551463518	3.7220294551463518	1008	32256
32.98222327232361	32	80.39271	17.483057	118.5013	48.830982	21.0	0.0	3.828224	3.828224	3.8291707947946687	3.8291707947946687	1008	33264
34.018139600753784	33	80.378746	18.83336	118.73053	38.662598	21.0	0.0	3.8275597	3.8275597	3.8284558197658045	3.8284558197658045	1008	34272
34.97282886505127	34	81.77908	17.872501	118.44936	38.903534	21.0	0.0	3.894242	3.894242	3.895030723280149	3.895030723280149	1008	35280
35.92328643798828	35	89.180115	17.335184	128.28658	48.992607	21.0	0.0	4.246672	4.246672	4.247494150249439	4.247494150249439	1008	36288
36.915998458862305	36	88.94672	18.459919	128.17722	38.93816	21.0	0.0	4.235558	4.235558	4.236335243936371	4.236335243936371	1008	37296
37.94721341133118	37	89.766884	18.606468	128.07254	39.166695	21.0	0.0	4.274614	4.274614	4.2754014158120475	4.2754014158120475	1008	38304
38.913938999176025	38	94.89506	14.672214	128.42215	58.652718	21.0	0.0	4.518812	4.518812	4.519492863174047	4.519492863174047	1008	39312
39.855177879333496	39	92.27163	13.683336	118.36515	58.769196	21.0	0.0	4.3938875	4.3938875	4.394570579545846	4.394570579545846	1008	40320
40.7694628238678	40	92.63202	19.06666	128.29947	48.599777	21.0	0.0	4.4110484	4.4110484	4.411830068792662	4.411830068792662	1008	41328
41.73857402801514	41	93.79138	20.493196	128.13873	28.997746	21.0	0.0	4.4662557	4.4662557	4.4669505363368005	4.4669505363368005	1008	42336
42.66913199424744	42	92.78662	21.629045	128.23923	-0.9988998	21.0	0.0	4.4184103	4.4184103	4.419134326205792	4.419134326205792	1008	43344
43.677955865859985	43	96.29159	15.48911	128.2652	68.423515	21.0	0.0	4.585314	4.585314	4.585980723144861	4.585980723144861	1008	44352
44.6924467086792	44	92.96616	17.963114	128.37178	48.621986	21.0	0.0	4.4269605	4.4269605	4.4276589370735575	4.4276589370735575	1008	45360
45.78890681266785	45	90.7485	15.556646	128.23114	58.882202	21.0	0.0	4.321357	4.321357	4.322009251903204	4.322009251903204	1008	46368
46.816720724105835	46	94.1634	14.446166	118.214935	48.350815	21.0	0.0	4.4839716	4.4839716	4.484620550519103	4.484620550519103	1008	47376
47.942200899124146	47	97.45457	21.825321	137.95357	38.741493	21.0	0.0	4.6406937	4.6406937	4.641316618856994	4.641316618856994	1008	48384
49.04429912567139	48	98.728355	14.420738	128.00308	68.516716	21.0	0.0	4.70135	4.70135	4.701939892181183	4.701939892181183	1008	49392
50.113834619522095	49	97.66839	17.569653	128.0164	38.396404	21.0	0.0	4.6508756	4.6508756	4.651483997821956	4.651483997821956	1008	50400
51.21156144142151	50	97.19033	15.664553	137.64262	58.392838	21.0	0.0	4.628111	4.628111	4.628671322844264	4.628671322844264	1008	51408
52.28589749336243	51	95.178215	17.145632	137.65125	48.996765	21.0	0.0	4.5322957	4.5322957	4.5328365836076925	4.5328365836076925	1008	52416
53.375776529312134	52	94.77106	16.250366	118.51584	58.399025	21.0	0.0	4.5129075	4.5129075	4.513468890178671	4.513468890178671	1008	53424
54.42725157737732	53	102.61866	10.87632	128.35883	78.10771	21.0	0.0	4.886603	4.886603	4.8871232154762305	4.8871232154762305	1008	54432
55.48808240890503	54	101.32601	14.318636	128.30225	58.6763	21.0	0.0	4.8250484	4.8250484	4.825547864068796	4.825547864068796	1008	55440
56.51908826828003	55	102.739845	14.146835	137.73137	68.51052	21.0	0.0	4.8923736	4.8923736	4.892862189134933	4.892862189134933	1008	56448
57.53580164909363	56	97.817116	16.53528	137.35066	58.315186	21.0	0.0	4.657958	4.657958	4.6584740737418855	4.6584740737418855	1008	57456
58.59029817581177	57	101.25022	13.7183275	128.23697	68.53279	21.0	0.0	4.8214393	4.8214393	4.821898918131517	4.821898918131517	1008	58464
59.69034218788147	58	106.2532	11.892124	127.94468	78.270966	21.0	0.0	5.0596757	5.0596757	5.060144065133209	5.060144065133209	1008	59472
60.7872109413147	59	102.50214	15.14183	137.91313	58.746834	21.0	0.0	4.8810534	4.8810534	4.8815289486811055	4.8815289486811055	1008	60480
61.88755917549133	60	103.50436	16.30267	128.19781	38.698612	21.0	0.0	4.9287786	4.9287786	4.929242965125929	4.929242965125929	1008	61488
63.02380299568176	61	105.20052	12.429249	128.2931	78.35121	21.0	0.0	5.009549	5.009549	5.009985510501997	5.009985510501997	1008	62496
64.16780710220337	62	103.928566	15.891331	128.24658	58.756668	21.0	0.0	4.9489794	4.9489794	4.949443187254784	4.949443187254784	1008	63504
65.31147885322571	63	105.179504	13.093517	128.02647	78.53109	21.0	0.0	5.008548	5.008548	5.008990494393079	5.008990494393079	1008	64512
66.44510006904602	64	108.701454	13.111442	137.64212	78.33195	21.0	0.0	5.17626	5.17626	5.176669289381094	5.176669289381094	1008	65520
67.56231689453125	65	105.38738	15.36959	137.71228	78.20625	21.0	0.0	5.018446	5.018446	5.01888718677232	5.01888718677232	1008	66528
68.6561222076416	66	104.9277	18.236908	137.91318	48.442104	21.0	0.0	4.996557	4.996557	4.99698356022861	4.99698356022861	1008	67536
69.71237540245056	67	105.769714	14.601892	137.85402	68.47298	21.0	0.0	5.036653	5.036653	5.037056954541427	5.037056954541427	1008	68544
70.83623147010803	68	108.2821	15.338845	137.95415	68.29096	21.0	0.0	5.15629	5.15629	5.156676106955135	5.156676106955135	1008	69552
71.97113919258118	69	106.56728	19.594774	147.32104	38.29289	21.0	0.0	5.0746326	5.0746326	5.075031750158314	5.075031750158314	1008	70560
73.07388210296631	70	104.28738	14.262576	137.84514	68.09531	21.0	0.0	4.966066	4.966066	4.966475894202563	4.966475894202563	1008	71568
74.18230128288269	71	112.93052	15.64198	148.04959	48.615326	21.0	0.0	5.377644	5.377644	5.37802131969197	5.37802131969197	1008	72576
75.30395030975342	72	108.81113	15.8788595	137.38028	68.144135	21.0	0.0	5.1814823	5.1814823	5.181878275408192	5.181878275408192	1008	73584
76.48048949241638	73	110.42263	12.46735	137.49394	78.59619	21.0	0.0	5.25822	5.25822	5.2585922029736665	5.2585922029736665	1008	74592
77.6421389579773	74	110.83338	11.953141	137.7101	87.70124	21.0	0.0	5.2777805	5.2777805	5.278152102753954	5.278152102753954	1008	75600
78.72149181365967	75	111.258545	11.980375	128.01617	87.90834	21.0	0.0	5.298026	5.298026	5.298396835266645	5.298396835266645	1008	76608
79.77627444267273	76	110.23873	14.46081	137.54904	68.267815	21.0	0.0	5.249463	5.249463	5.24982091620223	5.24982091620223	1008	77616
80.81601619720459	77	108.98676	12.2945795	137.5311	78.361755	21.0	0.0	5.189846	5.189846	5.190202701948218	5.190202701948218	1008	78624
81.98631048202515	78	111.035034	14.846444	137.20027	68.37261	21.0	0.0	5.2873826	5.2873826	5.287780434507447	5.287780434507447	1008	79632
83.20531725883484	79	112.23527	11.728442	137.62698	78.28064	21.0	0.0	5.344537	5.344537	5.344885336613535	5.344885336613535	1008	80640
84.47391772270203	80	109.78896	15.327797	137.83286	68.41855	21.0	0.0	5.228046	5.228046	5.228404268024516	5.228404268024516	1008	81648
85.76332354545593	81	109.97519	13.172225	137.75746	78.50793	21.0	0.0	5.2369137	5.2369137	5.237271278584783	5.237271278584783	1008	82656
87.03789567947388	82	113.484764	13.4074545	137.5676	87.80146	21.0	0.0	5.404036	5.404036	5.404386113720752	5.404386113720752	1008	83664
88.30729293823242	83	112.96655	12.723269	137.63127	78.21751	21.0	0.0	5.3793597	5.3793597	5.379698894999627	5.379698894999627	1008	84672
89.55018925666809	84	111.914856	13.544077	137.40622	68.24246	21.0	0.0	5.329279	5.329279	5.329628545349554	5.329628545349554	1008	85680
90.67236018180847	85	112.78366	11.579688	127.80507	78.39328	21.0	0.0	5.370651	5.370651	5.371001632534194	5.371001632534194	1008	86688
91.76753067970276	86	113.20689	14.276058	147.67224	68.36714	21.0	0.0	5.3908043	5.3908043	5.391142037479883	5.391142037479883	1008	87696
93.08400440216064	87	111.08335	14.7343645	137.46745	68.14299	21.0	0.0	5.2896833	5.2896833	5.290012348239258	5.290012348239258	1008	88704
94.37395477294922	88	110.92321	15.561125	137.66107	77.843445	21.0	0.0	5.2820573	5.2820573	5.282393513485785	5.282393513485785	1008	89712
95.55274534225464	89	111.30074	13.126237	137.25954	58.796787	21.0	0.0	5.3000355	5.3000355	5.300363538036784	5.300363538036784	1008	90720
96.79998564720154	90	114.96206	12.735849	137.71625	78.075645	21.0	0.0	5.4743834	5.4743834	5.474697056636284	5.474697056636284	1008	91728
98.04603505134583	91	113.08572	11.551209	127.71919	87.77875	21.0	0.0	5.385034	5.385034	5.385358015946124	5.385358015946124	1008	92736
99.31467938423157	92	119.65913	11.878494	147.202	88.130646	21.0	0.0	5.698054	5.698054	5.69835862684875	5.69835862684875	1008	93744
100.55375599861145	93	118.17597	11.24721	137.47537	88.4345	21.0	0.0	5.6274276	5.6274276	5.627736066230329	5.627736066230329	1008	94752
101.78389811515808	94	117.40707	13.971395	137.55397	68.2914	21.0	0.0	5.5908127	5.5908127	5.59113404550873	5.59113404550873	1008	95760
103.1816737651825	95	119.799805	9.694227	137.74019	97.54283	21.0	0.0	5.7047524	5.7047524	5.705046667969525	5.705046667969525	1008	96768
104.380530834198	96	117.969025	11.06301	137.64012	97.61058	21.0	0.0	5.6175733	5.6175733	5.617877817191501	5.617877817191501	1008	97776
105.53924632072449	97	120.07123	9.993355	137.82652	97.61296	21.0	0.0	5.7176776	5.7176776	5.71797024970327	5.71797024970327	1008	98784
106.95905065536499	98	115.08923	13.109195	137.3483	68.09224	21.0	0.0	5.4804397	5.4804397	5.48075980848885	5.48075980848885	1008	99792
108.16807317733765	99	118.176414	9.335631	137.29684	97.75145	21.0	0.0	5.6274476	5.6274476	5.627738295908106	5.627738295908106	1008	100800
