Time	Iteration	AverageReturn	StdReturn	MaxReturn	MinReturn	EpLenMean	EpLenStd	TimestepsThisBatch	TimestepsSoFar
33.635252952575684	0	6.318182	2.9494514	21.0	3.0	6.318181818181818	2.9494517085525507	5004	5004
65.17310380935669	1	21.747826	11.594859	70.0	6.0	21.747826086956522	11.594859039404804	5002	10006
96.56138062477112	2	39.21875	19.774881	131.0	6.0	39.21875	19.774880491105375	5020	15026
127.29701924324036	3	32.173077	16.259184	91.0	3.0	32.17307692307692	16.259184174481938	5019	20045
158.18701457977295	4	42.091667	23.542513	117.0	7.0	42.09166666666667	23.54251325911394	5051	25096
188.06345081329346	5	30.518293	18.428991	75.0	5.0	30.51829268292683	18.428991132404377	5005	30101
219.27653622627258	6	51.050507	32.02063	267.0	6.0	51.05050505050505	32.02062900011656	5054	35155
250.0528736114502	7	81.66129	19.524958	163.0	52.0	81.66129032258064	19.524958013574366	5063	40218
280.6364028453827	8	98.54902	41.114048	191.0	13.0	98.54901960784314	41.114051662866686	5026	45244
311.1423511505127	9	73.13043	24.188217	109.0	8.0	73.1304347826087	24.18821910123242	5046	50290
341.6460118293762	10	88.45614	7.400972	111.0	75.0	88.45614035087719	7.400972376698383	5042	55332
371.762788772583	11	139.61111	21.521666	167.0	62.0	139.61111111111111	21.521665799036843	5026	60358
404.7860383987427	12	389.84616	315.90915	1000.0	50.0	389.84615384615387	315.90915104817134	5068	65426
438.43206429481506	13	354.3125	296.78333	1000.0	32.0	354.3125	296.783321370575	5669	71095
468.97920632362366	14	387.15384	298.14838	1000.0	39.0	387.15384615384613	298.14834876252877	5033	76128
501.5394365787506	15	113.51111	91.9366	439.0	11.0	113.5111111111111	91.93660188103593	5108	81236
534.6103086471558	16	529.8	284.78616	1000.0	103.0	529.8	284.78616539431823	5298	86534
567.5126297473907	17	650.375	454.1252	1000.0	5.0	650.375	454.1252408477203	5203	91737
601.4269270896912	18	911.6667	144.55986	1000.0	609.0	911.6666666666666	144.55986841290206	5470	97207
635.9110951423645	19	160.45714	179.16463	700.0	2.0	160.45714285714286	179.16462387697968	5616	102823
668.1569581031799	20	642.875	409.34564	1000.0	2.0	642.875	409.3456478026852	5143	107966
696.9658832550049	21	834.1667	370.8146	1000.0	5.0	834.1666666666666	370.8146062687151	5005	112971
725.7173843383789	22	834.3333	370.4419	1000.0	6.0	834.3333333333334	370.44192827246513	5006	117977
753.6417720317841	23	556.6667	495.66187	1000.0	2.0	556.6666666666666	495.6618470960486	5010	122987
783.7960319519043	24	202.04	398.98035	1000.0	2.0	202.04	398.9803483882383	5051	128038
813.5706441402435	25	16.135485	109.81439	1000.0	2.0	16.135483870967743	109.81439340523362	5002	133040
844.5925099849701	26	715.0	450.62466	1000.0	2.0	715.0	450.62464582906625	5005	138045
879.2748589515686	27	1000.0	0.0	1000.0	1000.0	1000.0	0.0	6000	144045
908.1782641410828	28	834.3333	370.44193	1000.0	6.0	834.3333333333334	370.44192827246513	5006	149051
941.2539403438568	29	774.2857	265.9698	1000.0	172.0	774.2857142857143	265.96976964938506	5420	154471
976.3579001426697	30	666.0	392.36832	1000.0	47.0	666.0	392.36830770194587	5994	160465
1005.54736161232	31	851.1667	253.75737	1000.0	308.0	851.1666666666666	253.75737537174277	5107	165572
1038.980119228363	32	939.1667	136.02748	1000.0	635.0	939.1666666666666	136.0274686312372	5635	171207
1073.8447120189667	33	1000.0	0.0	1000.0	1000.0	1000.0	0.0	6000	177207
1108.215425491333	34	1000.0	0.0	1000.0	1000.0	1000.0	0.0	6000	183207
1143.1776640415192	35	1000.0	0.0	1000.0	1000.0	1000.0	0.0	6000	189207
1177.55681681633	36	1000.0	0.0	1000.0	1000.0	1000.0	0.0	6000	195207
1211.891813993454	37	1000.0	0.0	1000.0	1000.0	1000.0	0.0	6000	201207
1246.5626463890076	38	1000.0	0.0	1000.0	1000.0	1000.0	0.0	6000	207207
1281.81383061409	39	1000.0	0.0	1000.0	1000.0	1000.0	0.0	6000	213207
1316.297746181488	40	1000.0	0.0	1000.0	1000.0	1000.0	0.0	6000	219207
1345.5612921714783	41	863.6667	304.8506	1000.0	182.0	863.6666666666666	304.8506009324713	5182	224389
1377.8793947696686	42	943.6667	125.96517	1000.0	662.0	943.6666666666666	125.96516273248817	5662	230051
1415.700123310089	43	1000.0	0.0	1000.0	1000.0	1000.0	0.0	6000	236051
1449.9122292995453	44	910.1667	173.04376	1000.0	527.0	910.1666666666666	173.04374848254093	5461	241512
1481.7548949718475	45	593.0	349.56958	1000.0	11.0	593.0	349.56957660655894	5337	246849
1515.712319612503	46	481.75	392.93106	1000.0	31.0	481.75	392.93110613269937	5781	252630
1549.609224319458	47	498.16666	313.09793	1000.0	36.0	498.1666666666667	313.0979168815333	5978	258608
1579.898164987564	48	372.7857	366.6653	1000.0	14.0	372.7857142857143	366.66531616943627	5219	263827
1612.5234467983246	49	189.55556	205.89342	1000.0	11.0	189.55555555555554	205.89341603225708	5118	268945
1645.2086193561554	50	143.91429	128.41258	557.0	7.0	143.9142857142857	128.41258759584758	5037	273982
1679.8126137256622	51	466.83334	389.78537	1000.0	41.0	466.8333333333333	389.7853754168939	5602	279584
1713.550889492035	52	773.0	365.94342	1000.0	72.0	773.0	365.943399214375	5411	284995
1750.8420963287354	53	1000.0	0.0	1000.0	1000.0	1000.0	0.0	6000	290995
1787.0750262737274	54	1000.0	0.0	1000.0	1000.0	1000.0	0.0	6000	296995
1823.23495221138	55	1000.0	0.0	1000.0	1000.0	1000.0	0.0	6000	302995
1859.1260559558868	56	1000.0	0.0	1000.0	1000.0	1000.0	0.0	6000	308995
1894.9917805194855	57	1000.0	0.0	1000.0	1000.0	1000.0	0.0	6000	314995
1930.9312603473663	58	1000.0	0.0	1000.0	1000.0	1000.0	0.0	6000	320995
1965.4452278614044	59	846.3333	343.6091	1000.0	78.0	846.3333333333334	343.60911254246764	5078	326073
1995.8943197727203	60	240.09525	368.65897	1000.0	51.0	240.0952380952381	368.6589474041472	5042	331115
2027.0195653438568	61	650.25	451.53674	1000.0	60.0	650.25	451.53675099597376	5202	336317
2062.2602078914642	62	1000.0	0.0	1000.0	1000.0	1000.0	0.0	6000	342317
2090.9959304332733	63	846.3333	343.6091	1000.0	78.0	846.3333333333334	343.60911254246764	5078	347395
2125.6287393569946	64	1000.0	0.0	1000.0	1000.0	1000.0	0.0	6000	353395
2160.185864210129	65	1000.0	0.0	1000.0	1000.0	1000.0	0.0	6000	359395
2194.6709389686584	66	1000.0	0.0	1000.0	1000.0	1000.0	0.0	6000	365395
2229.4897906780243	67	1000.0	0.0	1000.0	1000.0	1000.0	0.0	6000	371395
2264.1550731658936	68	1000.0	0.0	1000.0	1000.0	1000.0	0.0	6000	377395
2294.198342561722	69	169.59375	162.77856	812.0	77.0	169.59375	162.77858031982433	5427	382822
2328.5475471019745	70	1000.0	0.0	1000.0	1000.0	1000.0	0.0	6000	388822
2363.307233572006	71	1000.0	0.0	1000.0	1000.0	1000.0	0.0	6000	394822
2398.109381198883	72	1000.0	0.0	1000.0	1000.0	1000.0	0.0	6000	400822
2430.9475297927856	73	166.90323	184.22432	763.0	16.0	166.90322580645162	184.22432938670525	5174	405996
2466.111752510071	74	1000.0	0.0	1000.0	1000.0	1000.0	0.0	6000	411996
2501.0056278705597	75	1000.0	0.0	1000.0	1000.0	1000.0	0.0	6000	417996
2535.5152831077576	76	302.0	214.99571	776.0	32.0	302.0	214.99571599159097	5738	423734
2568.543470144272	77	45.1875	26.055412	135.0	5.0	45.1875	26.0554118487339	5061	428795
2601.9168829917908	78	39.54331	21.19083	113.0	7.0	39.54330708661417	21.190829953131807	5022	433817
2635.0119967460632	79	44.884956	19.651726	114.0	7.0	44.88495575221239	19.651725233273027	5072	438889
2664.4841406345367	80	77.12308	43.792343	266.0	27.0	77.12307692307692	43.79234484993491	5013	443902
2695.547471523285	81	290.3889	205.54132	762.0	58.0	290.3888888888889	205.54132833647103	5227	449129
2727.290942430496	82	457.33334	245.14394	744.0	91.0	457.3333333333333	245.1439486415187	5488	454617
2754.8149242401123	83	630.75	324.73672	1000.0	191.0	630.75	324.7367202827546	5046	459663
2786.3638019561768	84	332.5625	177.97365	640.0	25.0	332.5625	177.97365280779624	5321	464984
2819.240688562393	85	210.88	184.82301	889.0	38.0	210.88	184.82301155429752	5272	470256
2852.999272584915	86	296.44446	271.82227	1000.0	80.0	296.44444444444446	271.82229125789405	5336	475592
2889.3575310707092	87	1000.0	0.0	1000.0	1000.0	1000.0	0.0	6000	481592
2925.6591975688934	88	1000.0	0.0	1000.0	1000.0	1000.0	0.0	6000	487592
2960.0575139522552	89	1000.0	0.0	1000.0	1000.0	1000.0	0.0	6000	493592
2994.273184299469	90	1000.0	0.0	1000.0	1000.0	1000.0	0.0	6000	499592
3030.039827108383	91	1000.0	0.0	1000.0	1000.0	1000.0	0.0	6000	505592
3063.4759809970856	92	577.7778	305.3078	1000.0	252.0	577.7777777777778	305.30777832569686	5200	510792
3097.8375413417816	93	493.36365	303.8864	1000.0	46.0	493.3636363636364	303.88642397725823	5427	516219
3131.6416335105896	94	466.72726	303.31744	1000.0	73.0	466.72727272727275	303.3174427466712	5134	521353
3167.4071362018585	95	1000.0	0.0	1000.0	1000.0	1000.0	0.0	6000	527353
3201.7544338703156	96	891.0	243.73141	1000.0	346.0	891.0	243.73140954747709	5346	532699
3237.897505044937	97	1000.0	0.0	1000.0	1000.0	1000.0	0.0	6000	538699
3274.0461807250977	98	1000.0	0.0	1000.0	1000.0	1000.0	0.0	6000	544699
3310.935624599457	99	1000.0	0.0	1000.0	1000.0	1000.0	0.0	6000	550699
