Time	Iteration	AverageReturn	StdReturn	MaxReturn	MinReturn	EpLenMean	EpLenStd	TimestepsThisBatch	TimestepsSoFar
11.734224081039429	0	-174.11678	36.133423	-103.140015	-276.92578	151.0	0.0	10117	10117
20.965375423431396	1	-169.93294	42.59762	-78.98011	-274.2894	151.0	0.0	10117	20234
30.06138825416565	2	-166.05313	49.466866	-73.00503	-333.63098	151.0	0.0	10117	30351
38.908565044403076	3	-171.74411	41.96276	-88.55899	-264.47308	151.0	0.0	10117	40468
48.444740772247314	4	-170.23067	41.576004	-59.727615	-315.97705	151.0	0.0	10117	50585
58.39859485626221	5	-175.66267	41.00432	-85.913055	-256.33627	151.0	0.0	10117	60702
67.87112760543823	6	-188.48868	41.724213	-91.9866	-268.7309	151.0	0.0	10117	70819
77.03896617889404	7	-195.88458	34.018818	-108.10602	-284.04657	151.0	0.0	10117	80936
85.86775779724121	8	-210.65869	43.66625	-96.88338	-305.76123	151.0	0.0	10117	91053
94.73859786987305	9	-209.4711	34.910866	-100.94908	-286.26007	151.0	0.0	10117	101170
104.28111219406128	10	-212.94287	39.634148	-121.19705	-294.80945	151.0	0.0	10117	111287
114.87649273872375	11	-217.18268	41.88815	-106.41586	-310.4485	151.0	0.0	10117	121404
125.3536012172699	12	-214.11688	39.21938	-142.66907	-320.5421	151.0	0.0	10117	131521
135.766747713089	13	-226.78879	37.053898	-158.07901	-322.26077	151.0	0.0	10117	141638
146.02790904045105	14	-230.84871	47.201973	-136.27957	-353.27863	151.0	0.0	10117	151755
154.8964717388153	15	-222.34717	39.740597	-68.98215	-297.08017	151.0	0.0	10117	161872
163.6920871734619	16	-227.12343	39.0433	-157.84825	-317.6148	151.0	0.0	10117	171989
172.50058913230896	17	-219.35634	45.58883	-126.82647	-323.15118	151.0	0.0	10117	182106
181.30448651313782	18	-207.50826	44.449875	-100.804794	-320.7649	151.0	0.0	10117	192223
190.7342574596405	19	-216.9652	45.840427	-96.53699	-323.46033	151.0	0.0	10117	202340
201.15144872665405	20	-205.4896	39.562557	-135.04324	-341.9109	151.0	0.0	10117	212457
211.5633385181427	21	-200.0195	42.023582	-110.42087	-292.64624	151.0	0.0	10117	222574
222.55318117141724	22	-200.1755	43.93722	-79.29799	-310.18616	151.0	0.0	10117	232691
233.78393363952637	23	-189.13754	48.99519	-86.43983	-351.67245	151.0	0.0	10117	242808
242.69543027877808	24	-199.65948	39.310936	-109.632095	-312.9727	151.0	0.0	10117	252925
251.60892391204834	25	-198.43214	39.12399	-111.53094	-300.60132	151.0	0.0	10117	263042
260.4125463962555	26	-214.61868	38.556507	-140.71008	-310.98972	151.0	0.0	10117	273159
269.31878542900085	27	-198.96535	46.752773	-121.1099	-321.88187	151.0	0.0	10117	283276
278.59547090530396	28	-195.17558	35.476288	-114.988266	-276.52158	151.0	0.0	10117	293393
288.9578251838684	29	-199.07268	44.107967	-106.738815	-307.02228	151.0	0.0	10117	303510
299.57572746276855	30	-188.52898	43.448425	-71.73101	-276.15015	151.0	0.0	10117	313627
308.7928261756897	31	-200.14978	36.938965	-94.75647	-270.2262	151.0	0.0	10117	323744
318.23374223709106	32	-193.34503	41.609306	-115.084656	-282.57944	151.0	0.0	10117	333861
327.4616470336914	33	-181.64958	44.60732	-86.73544	-285.83362	151.0	0.0	10117	343978
337.2079129219055	34	-184.40674	47.8918	-97.62737	-344.24646	151.0	0.0	10117	354095
346.0181965827942	35	-164.30951	49.8134	-48.903606	-290.91333	151.0	0.0	10117	364212
353.59991455078125	36	-168.08258	47.48048	-38.074745	-296.93652	151.0	0.0	10117	374329
362.37548637390137	37	-167.01164	44.190575	-45.87811	-280.3973	151.0	0.0	10117	384446
372.88653683662415	38	-157.11305	49.840645	-38.80599	-310.25854	151.0	0.0	10117	394563
383.8676223754883	39	-148.56436	36.530727	-65.77787	-272.50452	151.0	0.0	10117	404680
394.13551473617554	40	-156.98349	41.587082	-51.40818	-240.46646	151.0	0.0	10117	414797
403.4543333053589	41	-144.91003	42.394978	-41.254986	-270.30212	151.0	0.0	10117	424914
412.8129825592041	42	-154.806	31.3423	-97.83242	-222.95743	151.0	0.0	10117	435031
424.185884475708	43	-157.83896	32.39628	-101.49982	-248.30112	151.0	0.0	10117	445148
434.4188463687897	44	-159.70822	39.006496	-74.14474	-258.0429	151.0	0.0	10117	455265
443.3371376991272	45	-160.6563	34.251873	-83.743744	-230.44122	151.0	0.0	10117	465382
452.89419078826904	46	-159.04764	39.70188	-68.16279	-273.02686	151.0	0.0	10117	475499
463.6107897758484	47	-157.31613	31.062714	-77.96028	-249.6621	151.0	0.0	10117	485616
474.64363622665405	48	-146.05646	31.182951	-85.13788	-232.91176	151.0	0.0	10117	495733
483.86647963523865	49	-143.77077	35.85479	-38.196915	-247.29495	151.0	0.0	10117	505850
493.1950237751007	50	-146.55396	34.114906	-69.799515	-249.377	151.0	0.0	10117	515967
503.2980840206146	51	-122.8714	34.10058	-44.52953	-237.79706	151.0	0.0	10117	526084
514.6803262233734	52	-123.774254	36.901314	-51.39287	-225.66718	151.0	0.0	10117	536201
524.7552409172058	53	-119.09986	33.79441	-5.8674645	-189.92844	151.0	0.0	10117	546318
534.2620239257812	54	-126.75861	38.10909	-54.728943	-229.1434	151.0	0.0	10117	556435
543.7808589935303	55	-115.433914	40.29974	-38.83814	-215.1616	151.0	0.0	10117	566552
553.3205058574677	56	-118.974304	35.85908	-12.374575	-198.82993	151.0	0.0	10117	576669
563.4220218658447	57	-118.45491	39.608444	-25.07628	-230.29411	151.0	0.0	10117	586786
573.0632190704346	58	-122.69212	35.75514	-43.065826	-202.37585	151.0	0.0	10117	596903
582.6617002487183	59	-124.00962	43.280235	-41.498486	-228.0595	151.0	0.0	10117	607020
592.3232862949371	60	-127.83336	40.46699	-29.118572	-240.0599	151.0	0.0	10117	617137
601.7484192848206	61	-128.54779	39.388054	-10.891293	-213.63281	151.0	0.0	10117	627254
611.1494965553284	62	-131.1753	39.946865	-27.973469	-260.78983	151.0	0.0	10117	637371
622.6603319644928	63	-126.04452	41.98688	-55.4044	-241.19925	151.0	0.0	10117	647488
632.682685136795	64	-125.562035	35.302116	-9.341557	-246.09106	151.0	0.0	10117	657605
641.5150194168091	65	-122.26267	35.052544	-50.461502	-192.32333	151.0	0.0	10117	667722
651.0706534385681	66	-117.473305	30.629534	-53.017277	-186.39459	151.0	0.0	10117	677839
660.567756652832	67	-114.34384	32.160336	-54.131973	-185.60004	151.0	0.0	10117	687956
669.7927596569061	68	-122.48015	35.681843	-28.38206	-258.95877	151.0	0.0	10117	698073
679.7378602027893	69	-123.14085	37.35796	-35.33644	-198.03815	151.0	0.0	10117	708190
690.5460650920868	70	-119.013306	37.46437	-53.880997	-253.50348	151.0	0.0	10117	718307
701.4772579669952	71	-114.4177	36.164227	-23.407087	-203.43512	151.0	0.0	10117	728424
711.8916845321655	72	-116.77717	35.01504	-55.158543	-206.3365	151.0	0.0	10117	738541
720.9298222064972	73	-113.96039	42.70142	-1.6082611	-212.19257	151.0	0.0	10117	748658
729.8215763568878	74	-107.11013	39.58586	-24.590736	-223.5787	151.0	0.0	10117	758775
738.8850982189178	75	-116.059044	34.983345	-26.048985	-199.63683	151.0	0.0	10117	768892
748.9605774879456	76	-112.24295	37.115192	-20.658798	-201.28726	151.0	0.0	10117	779009
760.2898161411285	77	-110.29581	41.286316	-4.5251274	-212.27835	151.0	0.0	10117	789126
770.5810470581055	78	-111.26418	34.201805	-12.260269	-207.57916	151.0	0.0	10117	799243
779.8027453422546	79	-113.04521	40.168354	-23.932993	-216.31561	151.0	0.0	10117	809360
789.5421733856201	80	-109.45176	35.579697	-40.255516	-181.80923	151.0	0.0	10117	819477
800.4594361782074	81	-103.88898	36.713097	-24.38925	-209.29854	151.0	0.0	10117	829594
811.8697056770325	82	-101.87941	37.879124	-15.140331	-205.33966	151.0	0.0	10117	839711
821.2084138393402	83	-101.83126	39.546867	-23.040253	-221.92802	151.0	0.0	10117	849828
831.0796980857849	84	-102.687546	36.08987	-37.365166	-180.81659	151.0	0.0	10117	859945
841.6632854938507	85	-97.763824	42.66114	4.8399887	-221.07024	151.0	0.0	10117	870062
855.012836933136	86	-103.623505	35.3198	-13.221609	-219.40482	151.0	0.0	10117	880179
865.761148929596	87	-99.90084	35.73517	-19.71178	-181.52908	151.0	0.0	10117	890296
875.2158546447754	88	-100.495155	36.07546	3.5518756	-188.92303	151.0	0.0	10117	900413
885.000670671463	89	-106.511314	38.839413	-15.415394	-197.19078	151.0	0.0	10117	910530
894.3304166793823	90	-105.96658	27.275196	-34.942623	-171.90598	151.0	0.0	10117	920647
903.4005651473999	91	-105.80516	33.806625	-29.338528	-213.14389	151.0	0.0	10117	930764
913.2348849773407	92	-101.97432	37.914585	-34.844303	-218.10202	151.0	0.0	10117	940881
923.8333992958069	93	-102.681915	37.556572	-31.41629	-197.47652	151.0	0.0	10117	950998
936.1301338672638	94	-99.579216	33.413006	-13.704866	-187.38869	151.0	0.0	10117	961115
945.4590458869934	95	-119.704185	42.858612	-31.0627	-237.92813	151.0	0.0	10117	971232
954.9856796264648	96	-104.488884	35.21025	-8.319189	-189.61378	151.0	0.0	10117	981349
965.7003588676453	97	-108.810425	33.79966	-13.826888	-176.17453	151.0	0.0	10117	991466
977.4286825656891	98	-108.17333	35.68162	4.010502	-185.87302	151.0	0.0	10117	1001583
988.9298484325409	99	-113.04491	41.099422	-32.09057	-199.35593	151.0	0.0	10117	1011700
